V3 9
FL D:/buttonDebiuncer/buttonDebouncer/debouncer.vhd 2020/06/08.15:46:55 P.20131013
EN work/debouncer 1591631031 FL D:/buttonDebiuncer/buttonDebouncer/debouncer.vhd \
      PB ieee/std_logic_1164 1381692176 PB ieee/NUMERIC_STD 1381692181
AR work/debouncer/Behavioral 1591631032 \
      FL D:/buttonDebiuncer/buttonDebouncer/debouncer.vhd EN work/debouncer 1591631031
FL D:/buttonDebiuncer/buttonDebouncer/Spr_wyniku.vhd 2020/06/08.16:15:38 P.20131013
EN work/sprWyniku 1591636690 FL D:/buttonDebiuncer/buttonDebouncer/Spr_wyniku.vhd \
      PB ieee/std_logic_1164 1381692176 PB ieee/NUMERIC_STD 1381692181
AR work/sprWyniku/Behavioral 1591636691 \
      FL D:/buttonDebiuncer/buttonDebouncer/Spr_wyniku.vhd EN work/sprWyniku 1591636690
FL D:/buttonDebiuncer/buttonDebouncer/stanGry.vhd 2020/06/08.19:17:58 P.20131013
EN work/stanGry 1591637145 FL D:/buttonDebiuncer/buttonDebouncer/stanGry.vhd \
      PB ieee/std_logic_1164 1381692176 PB ieee/NUMERIC_STD 1381692181
AR work/stanGry/Behavioral 1591637146 \
      FL D:/buttonDebiuncer/buttonDebouncer/stanGry.vhd EN work/stanGry 1591637145
